	366
path:map00010	50
path:map00020	26
path:map00030	55
path:map00040	73
path:map00051	76
path:map00052	48
path:map00053	56
path:map00061	17
path:map00062	13
path:map00071	31
path:map00072	6
path:map00073	9
path:map00100	29
path:map00120	18
path:map00121	17
path:map00130	45
path:map00140	36
path:map00190	10
path:map00195	3
path:map00220	31
path:map00230	108
path:map00232	13
path:map00240	62
path:map00250	50
path:map00253	9
path:map00254	13
path:map00260	69
path:map00261	10
path:map00270	84
path:map00280	36
path:map00281	10
path:map00290	14
path:map00300	33
path:map00310	70
path:map00311	14
path:map00330	87
path:map00331	4
path:map00332	5
path:map00333	3
path:map00340	39
path:map00350	65
path:map00360	62
path:map00361	26
path:map00362	70
path:map00363	3
path:map00364	14
path:map00365	3
path:map00380	62
path:map00400	38
path:map00401	16
path:map00402	8
path:map00404	17
path:map00405	13
path:map00410	36
path:map00430	19
path:map00440	30
path:map00450	17
path:map00460	29
path:map00471	14
path:map00472	12
path:map00473	6
path:map00480	39
path:map00500	76
path:map00510	35
path:map00511	9
path:map00512	8
path:map00513	24
path:map00514	14
path:map00515	9
path:map00520	118
path:map00521	18
path:map00522	19
path:map00523	27
path:map00524	28
path:map00525	14
path:map00531	15
path:map00532	12
path:map00533	6
path:map00534	11
path:map00540	30
path:map00541	61
path:map00550	21
path:map00561	45
path:map00562	48
path:map00563	3
path:map00564	63
path:map00565	23
path:map00571	4
path:map00572	7
path:map00590	26
path:map00591	13
path:map00592	12
path:map00600	31
path:map00601	16
path:map00603	12
path:map00604	8
path:map00620	74
path:map00621	13
path:map00622	22
path:map00623	27
path:map00624	21
path:map00625	17
path:map00626	9
path:map00627	51
path:map00630	76
path:map00633	7
path:map00640	56
path:map00642	6
path:map00643	19
path:map00650	55
path:map00660	23
path:map00670	26
path:map00680	91
path:map00710	25
path:map00720	51
path:map00730	28
path:map00740	28
path:map00750	29
path:map00760	61
path:map00770	33
path:map00780	20
path:map00785	5
path:map00790	52
path:map00791	11
path:map00830	13
path:map00860	106
path:map00900	51
path:map00901	32
path:map00902	49
path:map00903	16
path:map00904	65
path:map00905	2
path:map00906	44
path:map00908	10
path:map00909	79
path:map00910	39
path:map00920	52
path:map00930	22
path:map00940	32
path:map00941	28
path:map00942	16
path:map00943	22
path:map00944	32
path:map00945	12
path:map00950	65
path:map00960	27
path:map00965	3
path:map00966	15
path:map00970	31
path:map00980	10
path:map00981	9
path:map00982	8
path:map00983	25
path:map00984	13
path:map00997	26
path:map00998	30
path:map00999	28
path:map01040	14
path:map01051	4
path:map01053	10
path:map01055	10
path:map01056	2
path:map01057	27
path:map01058	3
path:map01059	9
path:map01100	2640
path:map01110	1220
path:map01120	711
path:map01501	1
path:map04070	29
path:map04150	4
path:map04151	2
path:map04658	1
path:map04660	2
path:map04714	1
path:map04916	1
path:map04926	1
path:map05163	2
path:map05165	2
path:map05170	2
path:map05235	1
